andifc/test/ifc_test.vcd
$date
	Thu Jul 24 23:17:34 2025
$end
$version
	Icarus Verilog
$end
$timescale
	1ps
$end
$scope module ifc_test $end
$var wire 1 ! RST_N $end
$var wire 1 " a_data $end
$var wire 1 # a_en $end
$var wire 1 $ b_data $end
$var wire 1 % b_en $end
$var wire 1 & y_en $end
$var wire 1 ' y_rdy $end
$var wire 1 ( y_data $end
$var wire 1 ) b_rdy $end
$var wire 1 * a_rdy $end
$var reg 1 + CLK $end
$scope module dut $end
$var wire 1 + CLK $end
$var wire 1 ! RST_N $end
$var wire 1 " a_data $end
$var wire 1 # a_en $end
$var wire 1 , \a_ff$CLR $end
$var wire 1 - \a_ff$DEQ $end
$var wire 1 . \a_ff$D_IN $end
$var wire 1 / \a_ff$ENQ $end
$var wire 1 * a_rdy $end
$var wire 1 $ b_data $end
$var wire 1 % b_en $end
$var wire 1 0 \b_ff$CLR $end
$var wire 1 1 \b_ff$DEQ $end
$var wire 1 2 \b_ff$D_IN $end
$var wire 1 3 \b_ff$ENQ $end
$var wire 1 ) b_rdy $end
$var wire 1 ( y_data $end
$var wire 1 & y_en $end
$var wire 1 4 \y_ff$CLR $end
$var wire 1 5 \y_ff$DEQ $end
$var wire 1 6 \y_ff$D_IN $end
$var wire 1 7 \y_ff$ENQ $end
$var wire 1 ' y_rdy $end
$var wire 1 8 \y_ff$FULL_N $end
$var wire 1 9 \y_ff$EMPTY_N $end
$var wire 1 : \y_ff$D_OUT $end
$var wire 1 ; \b_ff$FULL_N $end
$var wire 1 < \b_ff$EMPTY_N $end
$var wire 1 = \b_ff$D_OUT $end
$var wire 1 > \a_ff$FULL_N $end
$var wire 1 ? \a_ff$EMPTY_N $end
$var wire 1 @ \a_ff$D_OUT $end
$scope module a_ff $end
$var wire 1 + CLK $end
$var wire 1 , CLR $end
$var wire 1 - DEQ $end
$var wire 1 . D_IN $end
$var wire 1 ? EMPTY_N $end
$var wire 1 / ENQ $end
$var wire 1 > FULL_N $end
$var wire 1 ! RST $end
$var wire 1 A d0d1 $end
$var wire 1 B d0di $end
$var wire 1 C d0h $end
$var wire 1 D d1di $end
$var wire 1 @ D_OUT $end
$var reg 1 @ data0_reg $end
$var reg 1 E data1_reg $end
$var reg 1 F empty_reg $end
$var reg 1 G full_reg $end
$scope begin error_checks $end
$var reg 1 H deqerror $end
$var reg 1 I enqerror $end
$upscope $end
$upscope $end
$scope module b_ff $end
$var wire 1 + CLK $end
$var wire 1 0 CLR $end
$var wire 1 1 DEQ $end
$var wire 1 2 D_IN $end
$var wire 1 < EMPTY_N $end
$var wire 1 3 ENQ $end
$var wire 1 ! RST $end
$var wire 1 ; FULL_N $end
$var reg 1 = D_OUT $end
$var reg 1 J empty_reg $end
$scope begin error_checks $end
$var reg 1 K deqerror $end
$var reg 1 L enqerror $end
$upscope $end
$upscope $end
$scope module y_ff $end
$var wire 1 + CLK $end
$var wire 1 4 CLR $end
$var wire 1 5 DEQ $end
$var wire 1 6 D_IN $end
$var wire 1 9 EMPTY_N $end
$var wire 1 7 ENQ $end
$var wire 1 8 FULL_N $end
$var wire 1 ! RST $end
$var wire 1 M d0d1 $end
$var wire 1 N d0di $end
$var wire 1 O d0h $end
$var wire 1 P d1di $end
$var wire 1 : D_OUT $end
$var reg 1 : data0_reg $end
$var reg 1 Q data1_reg $end
$var reg 1 R empty_reg $end
$var reg 1 S full_reg $end
$scope begin error_checks $end
$var reg 1 T deqerror $end
$var reg 1 U enqerror $end
$upscope $end
$upscope $end
$upscope $end
$upscope $end
$enddefinitions $end
#0
$dumpvars
xU
xT
1S
0R
0Q
0P
1O
0N
0M
xL
xK
0J
xI
xH
1G
0F
0E
0D
xC
xB
0A
0@
0?
1>
0=
0<
1;
0:
09
18
07
06
z5
04
z3
z2
01
00
z/
z.
0-
0,
0+
1*
1)
0(
0'
z&
z%
z$
z#
z"
1!
$end
#1000
0!
#2000
0B
1C
05
0&
03
0%
0/
0#
1!
#5000
0U
0T
0L
0K
0I
0H
1+
#10000
0+
#15000
1+
#20000
0+
#25000
1+
#30000
0+
#35000
1+
#40000
0+
#45000
1+
#50000
0+
#55000
1+
#60000
0+
#65000
1+
#70000
0+
#75000
1+
#80000
0+
#85000
1+
#90000
0+
#95000
0C
1B
1.
1"
1/
1#
1+
#100000
0+
#105000
0/
0#
1C
0B
0D
1?
1F
1@
1+
#110000
0+
#115000
1+
#120000
0+
#125000
1+
#130000
0+
#135000
1+
#140000
0+
#145000
1+
#150000
0+
#155000
1+
#160000
0+
#165000
12
1$
13
1%
1+
#170000
0+
#175000
1B
0C
1D
03
0%
1/
1#
0O
1N
16
17
11
1-
1=
0)
0;
1<
1J
1+
#180000
0+
#185000
0D
15
1&
0/
0#
0B
1C
1O
0N
07
01
0-
0P
1E
1)
1;
0<
0J
1'
19
1R
1(
1:
1+
#190000
0+
#195000
05
0&
0'
09
0R
1+
#200000
0+
#205000
1D
0.
0"
1/
1#
1+
#210000
0+
#215000
0D
0/
0#
0E
0*
0>
0G
1+
#220000
0+
#225000
1+
#230000
0+
#235000
1+
#240000
0+
#245000
1+
#250000
0+
#255000
13
1%
1+
#260000
0+
#265000
03
0%
0O
0C
1N
1A
17
11
1-
0)
0;
1<
1J
1+
#270000
0+
#275000
15
1&
1O
0N
1C
07
01
0-
06
0A
1'
19
1R
1)
1;
0<
0J
0@
1*
1>
1G
1+
#280000
0+
#285000
05
0&
0'
09
0R
1+
#290000
0+
#295000
1D
1/
1#
1+
#300000
0+
#305000
0D
0/
0#
0*
0>
0G
1+
#310000
0+
#315000
1+
#320000
0+
#325000
1+
#330000
0+
#335000
02
0$
13
1%
1+
#340000
0+
#345000
03
0%
0O
0C
1N
1A
17
11
1-
0)
0;
1<
1J
0=
1+
#350000
0+
#355000
1D
15
1&
12
1$
13
1%
1.
1"
1/
1#
1O
0N
1C
07
01
0-
0A
0(
0:
1'
19
1R
1)
1;
0<
0J
1*
1>
1G
1+
#360000
0+
#365000
0D
05
0&
03
0%
0/
0#
0C
1N
0O
1A
17
11
1-
0*
0>
0G
1E
0)
0;
1<
1J
1=
0'
09
0R
1+
#370000
0+
#375000
15
1&
1O
0N
1C
07
01
0-
16
0A
1'
19
1R
1)
1;
0<
0J
1@
1*
1>
1G
1+
#380000
0+
#385000
05
0&
02
0$
13
1%
0'
09
0R
1+
#390000
0+
#395000
03
0%
0O
1N
06
17
11
1-
0=
0)
0;
1<
1J
1+
#400000
0+
#405000
15
1&
1O
0N
07
01
0-
0P
0?
0F
1)
1;
0<
0J
1'
19
1R
1+
#410000
0+
#415000
05
0&
0'
09
0R
1+
#420000
0+
#425000
1+
#430000
0+
#435000
1+
#440000
0+
#445000
1+
#450000
0+
#455000
1+
#460000
0+
#465000
1+
#470000
0+
#475000
1+
#480000
0+
#485000
1+
#490000
0+
#495000
1+
#500000
0+
#505000
1+
#510000
0+
#515000
0C
1B
12
1$
13
1%
0.
0"
1/
1#
1+
#520000
0+
#525000
03
0%
0/
0#
0O
1N
1C
0B
17
11
1-
0D
1?
1F
0@
0)
0;
1<
1J
1=
1+
#530000
0+
#535000
15
1&
1O
0N
07
01
0-
1'
19
1R
1)
1;
0<
0J
0?
0F
1+
#540000
0+
#545000
05
0&
0'
09
0R
1+
#550000
0+
#555000
1+
#560000
0+
#565000
1+
#570000
0+
#575000
1+
#580000
0+
#585000
1+
#590000
0+
#595000
0C
1B
1/
1#
1+
#600000
0+
#605000
0/
0#
1C
0B
0D
1?
1F
1+
#610000
0+
#615000
1+
#620000
0+
#625000
1+
#630000
0+
#635000
1+
#640000
0+
#645000
02
0$
13
1%
1+
#650000
0+
#655000
03
0%
0O
1N
17
11
1-
0=
0)
0;
1<
1J
1+
#660000
0+
#665000
15
1&
1O
0N
07
01
0-
0P
0?
0F
1)
1;
0<
0J
1'
19
1R
1+
#670000
0+
#675000
05
0&
0'
09
0R
1+
#680000
0+
#685000
1+
#690000
0+
#695000
1+
#700000
0+
#705000
12
1$
13
1%
1+
#710000
0+
#715000
03
0%
1=
0)
0;
1<
1J
1+
#720000
0+
#725000
1+
#730000
0+
#735000
1+
#740000
0+
#745000
1+
#750000
0+
#755000
1+
#760000
0+
#765000
1+
#770000
0+
#775000
1+
#780000
0+
#785000
1+
#790000
0+
#795000
1+
#800000
0+
#805000
0C
1B
1/
1#
1+
#810000
0+
#815000
0/
0#
0O
1N
1C
0B
17
11
1-
0D
1?
1F
1+
#820000
0+
#825000
02
0$
13
1%
15
1&
1O
0N
07
01
0-
0P
0?
0F
1)
1;
0<
0J
1'
19
1R
1+
#830000
0+
#835000
03
0%
05
0&
0'
09
0R
0=
0)
0;
1<
1J
1+
#840000
0+
#845000
1+
#850000
0+
#855000
1+
#860000
0+
#865000
1+
#870000
0+
#875000
0C
1B
1/
1#
1+
#880000
0+
#885000
0/
0#
0O
1N
1C
0B
17
11
1-
0D
1?
1F
1+
#890000
0+
#895000
15
1&
1O
0N
07
01
0-
1'
19
1R
1)
1;
0<
0J
0?
0F
1+
#900000
0+
#905000
05
0&
0'
09
0R
1+
#910000
0+
#915000
13
1%
1+
#920000
0+
#925000
03
0%
0)
0;
1<
1J
1+
#930000
0+
#935000
0C
1B
1.
1"
1/
1#
1+
#940000
0+
#945000
0/
0#
0O
1N
1C
0B
17
11
1-
0D
1?
1F
1@
1+
#950000
0+
#955000
15
1&
1O
0N
07
01
0-
1'
19
1R
1)
1;
0<
0J
0?
0F
1+
#960000
0+
#965000
05
0&
0'
09
0R
1+
#970000
0+
#975000
1+
#980000
0+
#985000
1+
#990000
0+
#995000
1+
#1000000
0+
#1005000
1+
#1010000
0+
#1015000
1+
#1020000
0+
#1025000
1+
#1030000
0+
#1035000
1+
#1040000
0+
#1045000
1+
#1050000
0+
#1055000
1+
#1060000
0+
#1065000
1+
#1070000
0+
#1075000
0C
1B
1/
1#
1+
#1080000
0+
#1085000
0/
0#
1C
0B
0D
1?
1F
1+
#1090000
0+
#1095000
1+
#1100000
0+
#1105000
1+
#1110000
0+
#1115000
1+
#1120000
0+
#1125000
12
1$
13
1%
1+
#1130000
0+
#1135000
03
0%
0O
1N
16
17
11
1-
1=
0)
0;
1<
1J
1+
#1140000
0+
#1145000
15
1&
1O
0N
07
01
0-
0P
0?
0F
1)
1;
0<
0J
1'
19
1R
1(
1:
1+
#1150000
0+
#1155000
05
0&
0'
09
0R
1+
#1160000
0+
#1165000
1+
#1170000
0+
#1175000
1+
#1180000
0+
#1185000
1+
#1190000
0+
#1195000
1+
#1200000
0+
#1205000
1+
#1210000
0+
#1215000
02
0$
13
1%
1+
#1220000
0+
#1225000
03
0%
06
0)
0;
1<
1J
0=
1+
#1230000
0+
#1235000
1+
#1240000
0+
#1245000
1+
#1250000
0+
#1255000
1+
#1260000
0+
#1265000
1+
#1270000
0+
#1275000
1+
#1280000
0+
#1285000
0C
1B
0.
0"
1/
1#
1+
#1290000
0+
#1295000
0/
0#
0O
1N
1C
0B
17
11
1-
0D
0@
1?
1F
1+
#1300000
0+
#1305000
12
1$
13
1%
15
1&
1O
0N
07
01
0-
0P
0?
0F
1)
1;
0<
0J
1'
19
1R
0(
0:
1+
#1310000
0+
#1315000
03
0%
05
0&
0'
09
0R
1=
0)
0;
1<
1J
1+
#1320000
0+
#1325000
1+
#1330000
0+
#1335000
1+
#1340000
0+
#1345000
1+
#1350000
0+
#1355000
1+
#1360000
0+
#1365000
1+
#1370000
0+
#1375000
0C
1B
1/
1#
1+
#1380000
0+
#1385000
0/
0#
0O
1N
1C
0B
17
11
1-
0D
1?
1F
1+
#1390000
0+
#1395000
15
1&
13
1%
1O
0N
07
01
0-
1'
19
1R
1)
1;
0<
0J
0?
0F
1+
#1400000
0+
#1405000
05
0&
03
0%
0)
0;
1<
1J
0'
09
0R
1+
#1410000
0+
#1415000
1+
#1420000
0+
#1425000
1+
#1430000
0+
#1435000
1+
#1440000
0+
#1445000
1+
#1450000
0+
#1455000
1+
#1460000
0+
#1465000
1+
#1470000
0+
#1475000
1+
#1480000
0+
#1485000
1+
#1490000
0+
#1495000
1+
#1500000
0+
#1505000
1+
#1510000
0+
#1515000
1+
#1520000
0+
#1525000
1+
#1530000
0+
#1535000
1+
#1540000
0+
#1545000
1+
#1550000
0+
#1555000
1+
#1560000
0+
#1565000
1+
#1570000
0+
#1575000
0C
1B
1/
1#
1+
#1580000
0+
#1585000
0/
0#
0O
1N
1C
0B
17
11
1-
0D
1?
1F
1+
#1586000
1B
0C
1D
1/
1#
#1590000
0+
#1595000
0D
15
1&
13
1%
0/
0#
0B
1C
1O
0N
07
01
0-
1'
19
1R
1)
1;
0<
0J
0E
1+
#1600000
0+
#1605000
05
0&
03
0%
1N
0O
17
11
1-
0)
0;
1<
1J
0'
09
0R
1+
#1610000
0+
#1615000
15
1&
1O
0N
07
01
0-
1'
19
1R
1)
1;
0<
0J
0?
0F
1+
#1620000
0+
#1625000
05
0&
0'
09
0R
1+
#1630000
0+
#1635000
13
1%
1+
#1640000
0+
#1645000
03
0%
0)
0;
1<
1J
1+
#1650000
0+
#1655000
1+
#1660000
0+
#1665000
1+
#1670000
0+
#1675000
1+
#1680000
0+
#1685000
1+
#1690000
0+
#1695000
1+
#1700000
0+
#1705000
1+
#1710000
0+
#1715000
0C
1B
1.
1"
1/
1#
1+
#1720000
0+
#1725000
0/
0#
0O
1N
1C
0B
17
11
1-
0D
16
1?
1F
1@
1+
#1730000
0+
#1735000
15
1&
02
0$
13
1%
1O
0N
07
01
0-
1(
1:
1'
19
1R
1)
1;
0<
0J
0?
0F
1+
#1740000
0+
#1745000
0C
1B
05
0&
03
0%
1/
1#
06
0)
0;
1<
1J
0=
0'
09
0R
1+
#1750000
0+
#1755000
0/
0#
0O
1N
1C
0B
17
11
1-
0D
1?
1F
1+
#1760000
0+
#1765000
15
1&
1O
0N
07
01
0-
0P
0?
0F
1)
1;
0<
0J
1'
19
1R
0(
0:
1+
#1770000
0+
#1775000
05
0&
0'
09
0R
1+
#1780000
0+
#1785000
1+
#1790000
0+
#1795000
1+
#1800000
0+
#1805000
1+
#1810000
0+
#1815000
1+
#1820000
0+
#1825000
1+
#1830000
0+
#1835000
1+
#1840000
0+
#1845000
1+
#1850000
0+
#1855000
1+
#1860000
0+
#1865000
1+
#1870000
0+
#1875000
1+
#1880000
0+
#1885000
1+
#1890000
0+
#1895000
0C
1B
1/
1#
1+
#1900000
0+
#1905000
0/
0#
13
1%
1C
0B
0D
1?
1F
1+
#1910000
0+
#1915000
03
0%
0O
1N
17
11
1-
0)
0;
1<
1J
1+
#1920000
0+
#1925000
15
1&
1O
0N
07
01
0-
0P
0?
0F
1)
1;
0<
0J
1'
19
1R
1+
#1930000
0+
#1935000
05
0&
0'
09
0R
1+
#1940000
0+
#1945000
1+
#1950000
0+
#1955000
0C
1B
0.
0"
1/
1#
1+
#1960000
0+
#1965000
0/
0#
1C
0B
0D
1?
1F
0@
1+
#1970000
0+
#1975000
1+
#1980000
0+
#1985000
1+
#1990000
0+
#1995000
1+
#2000000
0+
#2005000
1+
#2010000
0+
#2015000
1+
#2020000
0+
#2025000
1+
#2030000
0+
#2035000
1+
#2040000
0+
#2045000
12
1$
13
1%
1+
#2050000
0+
#2055000
03
0%
0O
1N
17
11
1-
1=
0)
0;
1<
1J
1+
#2060000
0+
#2065000
15
1&
1O
0N
07
01
0-
0P
0?
0F
1)
1;
0<
0J
1'
19
1R
1+
#2070000
0+
#2075000
0C
1B
05
0&
1/
1#
0'
09
0R
1+
#2080000
0+
#2085000
0/
0#
1C
0B
0D
1?
1F
1+
#2090000
0+
#2095000
1+
#2100000
0+
#2105000
1+
#2110000
0+
#2115000
1+
#2120000
0+
#2125000
1+
#2130000
0+
#2135000
1+
#2140000
0+
#2145000
13
1%
1+
#2150000
0+
#2155000
03
0%
0O
1N
17
11
1-
0)
0;
1<
1J
1+
#2160000
0+
#2165000
15
1&
1O
0N
07
01
0-
0P
0?
0F
1)
1;
0<
0J
1'
19
1R
1+
